…
``` r
unique(data[,"Sale Price"])
```

    ## # A tibble: 1,327 × 1
    ##    `Sale Price`
    ##           <dbl>
    ##  1       181900
    ##  2       127100
    ##  3            0
    ##  4       245000
    ##  5       449664
    ##  6       368000
    ##  7       110000
    ##  8       350000
    ##  9       242000
    ## 10       293000
    ## # ℹ 1,317 more rows
…
